<?xml version="1.0" encoding="utf-8"?>
<svg version="1.1" id="Layer_1"
xmlns="http://www.w3.org/2000/svg"
xmlns:xlink="http://www.w3.org/1999/xlink"
width="77px" height="72px"
viewBox="0 0 77 72"
xml:space="preserve">
<g id="2" transform="matrix(1, 0, 0, 1, 39.25, 34.15)">
<path style="fill:#AAACAF;fill-opacity:1" d="M28.9,-30.3L28.9 8.25L34.4 12.35L34.4 12.75L34.6 13.1L34.6 13.45L34.65 13.6L34.65 25.7Q34.7 26.6 34 27.5L33.85 27.65L33.7 27.8L33.35 28.05L31.95 28.4L30.85 28.4L34.95 32.7Q35.25 32.95 35.1 33.35L34.85 33.65L34.85 37.05L34.75 37.3L34.5 37.4L-36.8 37.4L-37.05 37.3L-37.15 37.05L-37.15 33.6L-37.35 33.35Q-37.55 32.95 -37.25 32.7L-33.2 28.4L-34.7 28.4L-35.85 28.2L-36.6 27.65Q-37.4 26.85 -37.4 25.7L-37.4 13.85L-37.3 13.1L-37 12.35L-36.3 11.75L-31.55 8.15L-31.55 -30.3Q-31.6 -31.25 -30.85 -32.05L-30.85 -32.1L-30.8 -32.15Q-30.15 -32.8 -29.3 -32.95L-29.2 -32.95L-29.1 -32.95L-19.75 -33.55L-1.5 -34.15L16.95 -33.55L26.4 -32.95L26.45 -32.95Q27.5 -32.85 28.2 -32.05Q28.9 -31.25 28.9 -30.3M28.85,26.35L29.45 27L29.75 26.35L28.85 26.35M36.15,35.25L36.95 33.65L36.95 34.4L36.15 35.25M-31.8,27L-31.2 26.35L-32.1 26.35L-31.8 27M-39.25,34.25L-39.25 33.6L-38.5 35.2L-39.2 34.3L-39.25 34.25" />
<linearGradient
id="LinearGradID_2" gradientUnits="userSpaceOnUse" gradientTransform="matrix(-0.0750427, 0, 0, 0.0750427, -20.75, 10.95)" spreadMethod ="pad" x1="-819.2" y1="0" x2="819.2" y2="0" >
<stop  offset="0.243137" style="stop-color:#FFFFFF;stop-opacity:1" />
<stop  offset="1" style="stop-color:#5C5D5F;stop-opacity:1" />
</linearGradient>
<path style="fill:url(#LinearGradID_2) " d="M-27,8.05L24.15 8.05L31.95 13.85L-34.7 13.85L-27 8.05" />
<path style="fill:#AAACAF;fill-opacity:1" d="M31.95,14.5L-34.7 14.5Q-35.15 14.5 -35.3 14.05Q-35.4 13.65 -35.05 13.35L-27.4 7.55L-27 7.45L24.15 7.45L24.5 7.55L32.35 13.35Q32.7 13.65 32.55 14.05L31.95 14.5M-32.85,13.25L30.1 13.25L23.95 8.7L-26.8 8.7L-32.85 13.25" />
<linearGradient
id="LinearGradID_3" gradientUnits="userSpaceOnUse" gradientTransform="matrix(0, 0.0176849, 0.0176849, 0, -1.35, 3.35)" spreadMethod ="pad" x1="-819.2" y1="0" x2="819.2" y2="0" >
<stop  offset="0.243137" style="stop-color:#FFFFFF;stop-opacity:1" />
<stop  offset="1" style="stop-color:#5C5D5F;stop-opacity:1" />
</linearGradient>
<path style="fill:url(#LinearGradID_3) " d="M24.1,-30.4Q24.95 -30.35 25.6 -29.7Q26.2 -29.05 26.2 -28.15L26.2 7.35Q26.2 8.25 25.6 8.9Q24.95 9.55 24.1 9.6L15.75 10L-1.3 10.35L-18.4 10L-26.8 9.6Q-27.65 9.55 -28.25 8.9Q-28.9 8.25 -28.9 7.35L-28.9 -28.15Q-28.9 -29.05 -28.25 -29.7Q-27.65 -30.35 -26.8 -30.45L-18.55 -30.95L-1.5 -31.45L15.7 -30.95L24.1 -30.4" />
<path style="fill:#AAACAF;fill-opacity:1" d="M26.85,-28.15L26.85 7.35Q26.8 8.5 26.05 9.35Q25.25 10.15 24.15 10.2L15.75 10.6Q5.95 11 -1.3 11Q-8.55 11 -18.4 10.6L-26.8 10.2Q-27.95 10.15 -28.7 9.35Q-29.5 8.5 -29.5 7.35L-29.5 -28.15Q-29.5 -29.3 -28.7 -30.1Q-27.95 -30.95 -26.85 -31.05L-18.6 -31.55L-1.5 -32.1L15.75 -31.55L24.15 -31.05Q25.3 -30.95 26.05 -30.1Q26.8 -29.3 26.85 -28.15M15.65,-30.3L-1.5 -30.85L-18.5 -30.3L-26.75 -29.8Q-27.35 -29.8 -27.8 -29.3Q-28.3 -28.8 -28.25 -28.15L-28.25 7.35Q-28.3 8 -27.8 8.45Q-27.35 8.95 -26.75 9L-18.35 9.35Q-9 9.75 -1.3 9.75Q6.4 9.75 15.7 9.35L24.1 9Q24.7 8.95 25.15 8.45Q25.6 8 25.6 7.35L25.6 -28.15Q25.6 -28.8 25.15 -29.3Q24.7 -29.75 24.05 -29.8L15.65 -30.3" />
<linearGradient
id="LinearGradID_4" gradientUnits="userSpaceOnUse" gradientTransform="matrix(0.059906, 0, 0, -0.059906, 30.8, 19.8)" spreadMethod ="pad" x1="-819.2" y1="0" x2="819.2" y2="0" >
<stop  offset="0.243137" style="stop-color:#FFFFFF;stop-opacity:1" />
<stop  offset="1" style="stop-color:#5C5D5F;stop-opacity:1" />
</linearGradient>
<path style="fill:url(#LinearGradID_4) " d="M31.95,25.7L-34.7 25.7L-34.7 13.85L31.95 13.85L31.95 25.7" />
<path style="fill:#AAACAF;fill-opacity:1" d="M31.95,26.35L-34.7 26.35L-35.15 26.2L-35.3 25.7L-35.3 13.85L-35.15 13.45L-34.7 13.25L31.95 13.25L32.4 13.45L32.6 13.85L32.6 25.7L32.4 26.2L31.95 26.35M31.35,14.5L-34.1 14.5L-34.1 25.1L31.35 25.1L31.35 14.5" />
<radialGradient
id="RadialGradID_5" gradientUnits="userSpaceOnUse" gradientTransform="matrix(0.138092, 0, 0, -0.186371, 2.1, 27.85)" spreadMethod ="pad" cx="0" cy="0" r="819.2" fx="0" fy="0" >
<stop  offset="0"  style="stop-color:#FFFFFF;stop-opacity:1" />
<stop  offset="1"  style="stop-color:#383535;stop-opacity:1" />
</radialGradient>
<path style="fill:url(#RadialGradID_5) " d="M-28.6,24.5L26.15 24.5L34.5 33.1L-36.8 33.1L-28.6 24.5" />
<path style="fill:#AAACAF;fill-opacity:1" d="M34.5,33.75L-36.8 33.75L-37.35 33.35Q-37.55 32.95 -37.25 32.7L-29.05 24.05L-28.6 23.85L26.15 23.85Q26.45 23.85 26.6 24.05L34.95 32.7Q35.25 32.95 35.1 33.35L34.5 33.75M-35.35,32.5L33.05 32.5L25.9 25.1L-28.3 25.1L-35.35 32.5" />
<linearGradient
id="LinearGradID_6" gradientUnits="userSpaceOnUse" gradientTransform="matrix(0.0435181, 0, 0, -0.0587311, -1.15, 35.1)" spreadMethod ="pad" x1="-819.2" y1="0" x2="819.2" y2="0" >
<stop  offset="0.243137" style="stop-color:#FFFFFF;stop-opacity:1" />
<stop  offset="1" style="stop-color:#5C5D5F;stop-opacity:1" />
</linearGradient>
<path style="fill:url(#LinearGradID_6) " d="M34.5,37.05L-36.8 37.05L-36.8 33.1L34.5 33.1L34.5 37.05" />
<path style="fill:#AAACAF;fill-opacity:1" d="M34.5,37.65L-36.8 37.65L-37.25 37.5L-37.45 37.05L-37.45 33.1L-37.25 32.7L-36.8 32.5L34.5 32.5L34.95 32.7L35.15 33.1L35.15 37.05L34.95 37.5L34.5 37.65M33.9,33.75L-36.2 33.75L-36.2 36.4L33.9 36.4L33.9 33.75" />
<path style="fill:#737477;fill-opacity:1" d="M-10.35,19.7L-26.15 19.7L-26.15 18.15L-10.35 18.15L-10.35 19.7" />
<path style="fill:#858789;fill-opacity:1" d="M28.55,31.2L28.35 31.6L27.9 31.8L-29.4 31.8L-29.85 31.6L-30 31.2L-30 31.1L-29.9 30.65L-26.65 25.95Q-26.5 25.8 -26.35 25.75L-26.05 25.6L24.55 25.6Q24.85 25.6 24.95 25.85L25.05 25.95L28.3 30.65L28.35 30.75L28.55 31.2M-8.95,27.65L-5.85 27.65L-5.7 26.45L-8.65 26.45L-8.95 27.65M-12.9,26.45L-12.9 26.55L-13.3 27.65L-10.2 27.65L-9.95 26.45L-12.9 26.45M-17.1,26.45L-17.15 26.6L-17.65 27.65L-14.6 27.65L-14.2 26.45L-17.1 26.45M-21.35,26.45L-21.4 26.65L-22 27.65L-19 27.65L-18.45 26.45L-21.35 26.45M-25.65,26.65L-26.3 27.65L-23.4 27.65L-22.7 26.45L-25.55 26.45L-25.65 26.65M-24.15,28.9L-27.2 28.9L-28.35 30.55L-25.1 30.55L-24.15 28.9M-6.15,30.55L-5.95 28.9L-9.2 28.9L-9.6 30.55L-6.15 30.55M-13.75,28.9L-14.3 30.55L-10.9 30.55L-10.5 28.9L-13.75 28.9M-22.7,28.9L-23.65 30.55L-20.35 30.55L-19.6 28.9L-22.7 28.9M-19,30.55L-15.6 30.55L-15.05 28.9L-18.25 28.9L-19 30.55M11.25,26.45L8.3 26.45L8.6 27.65L11.7 27.65L11.3 26.55L11.25 26.45M12.55,26.45L13 27.65L16.05 27.65L15.55 26.6L15.5 26.45L12.55 26.45M19.7,26.45L16.85 26.45L17.4 27.65L20.35 27.65L19.75 26.65L19.7 26.45M21.1,26.45L21.8 27.65L24.7 27.65L24.05 26.65L23.95 26.45L21.1 26.45M-4.4,26.45L-4.55 27.65L-1.45 27.65L-1.45 26.45L-4.4 26.45M-0.2,26.45L-0.2 27.65L2.95 27.65L2.8 26.45L-0.2 26.45M4.05,26.45L4.2 27.65L7.3 27.65L7.05 26.45L4.05 26.45M4.55,30.55L8 30.55L7.6 28.9L4.35 28.9L4.55 30.55M3.1,28.9L-0.2 28.9L-0.2 30.55L3.3 30.55L3.1 28.9M9.25,30.55L12.7 30.55L12.1 28.9L8.9 28.9L9.25 30.55M-4.7,28.9L-4.9 30.55L-1.45 30.55L-1.45 28.9L-4.7 28.9M23.5,30.55L26.75 30.55L25.55 28.9L22.5 28.9L23.5 30.55M21.1,28.9L17.95 28.9L18.75 30.55L22.05 30.55L21.1 28.9M14,30.55L17.35 30.55L16.6 28.9L13.4 28.9L14 30.55" />
<linearGradient
id="LinearGradID_7" gradientUnits="userSpaceOnUse" gradientTransform="matrix(-0.00114441, -0.00985718, -0.00985718, 0.00114441, -1.25, -15.6)" spreadMethod ="pad" x1="-819.2" y1="0" x2="819.2" y2="0" >
<stop  offset="0" style="stop-color:#DDF4FE;stop-opacity:1" />
<stop  offset="1" style="stop-color:#5F7A8D;stop-opacity:1" />
</linearGradient>
<path style="fill:url(#LinearGradID_7) " d="M20.5,-16.55Q5.05 -17.1 -6.95 -14.4Q-16.2 -12.3 -23.05 -8.4L-23.05 -23.45Q-23.05 -24.35 -22.35 -25Q-21.7 -25.65 -20.8 -25.65L18.25 -25.65Q19.15 -25.65 19.8 -25Q20.5 -24.35 20.5 -23.45L20.5 -16.55" />
<linearGradient
id="LinearGradID_8" gradientUnits="userSpaceOnUse" gradientTransform="matrix(0, -0.0121155, -0.0121155, 0, -1.3, -3.25)" spreadMethod ="pad" x1="-819.2" y1="0" x2="819.2" y2="0" >
<stop  offset="0" style="stop-color:#DDF4FE;stop-opacity:1" />
<stop  offset="1" style="stop-color:#5F7A8D;stop-opacity:1" />
</linearGradient>
<path style="fill:url(#LinearGradID_8) " d="M19.8,4.7Q19.15 5.35 18.25 5.35L-20.8 5.35Q-21.7 5.35 -22.35 4.7Q-23.05 4.05 -23.05 3.1L-23.05 -8.4Q-16.2 -12.3 -6.95 -14.4Q5.05 -17.1 20.5 -16.55L20.5 3.1Q20.5 4.05 19.8 4.7" />
<path style="fill:#737477;fill-opacity:1" d="M19.75,19.55Q19.75 20.3 19.2 20.8Q18.7 21.35 17.95 21.35Q17.2 21.35 16.65 20.8Q16.15 20.3 16.15 19.55Q16.15 18.8 16.65 18.25Q17.2 17.75 17.95 17.75Q18.7 17.75 19.2 18.25Q19.75 18.8 19.75 19.55" />
<path style="fill:#737477;fill-opacity:1" d="M25.3,19.55Q25.3 20.3 24.75 20.8Q24.2 21.35 23.5 21.35Q22.75 21.35 22.2 20.8Q21.7 20.3 21.7 19.55Q21.7 18.8 22.2 18.25Q22.75 17.75 23.5 17.75Q24.2 17.75 24.75 18.25Q25.3 18.8 25.3 19.55" />
</g>
</svg>
